CDM Export Clinica Universitaria de Navarra Instrument #1 30/06/99 Run #199 Prot-Serum5B

199 1413R P ACV-7292   Albumin -0.76 12438 30.74* 4.00 
199 1413R P ACV-7292   Alpha1 -0.66 1428 3.53* 0.46 
199 1413R P ACV-7292   Alpha2 -0.55 790 1.95* 0.25*
199 1413R P ACV-7292   Beta -0.45 2119 5.24* 0.68 
199 1413R P ACV-7292   Gamma -0.26 23680 58.53* 7.61*
199 1414R P ACV-7331   Albumin -0.76 15887 56.41  4.29 
199 1414R P ACV-7331   Alpha1 -0.66 1322 4.69  0.36 
199 1414R P ACV-7331   Alpha2 -0.55 899 3.19* 0.24*
199 1414R P ACV-7331   Beta -0.45 5147 18.28* 1.39*
199 1414R P ACV-7331   Gamma -0.24 4908 17.43  1.32 
199 1415R P acu8454   Albumin -0.76 11672 49.77* 2.79*
199 1415R P acu8454   Alpha1 -0.66 1634 6.97* 0.39 
199 1415R P acu8454   Alpha2 -0.55 807 3.44* 0.19*
199 1415R P acu8454   Beta -0.45 2792 11.91  0.67 
199 1415R P acu8454   Gamma -0.28 6545 27.91* 1.56*
199 1416R P acu=2251   Albumin -0.76 14660 57.33  3.90 
199 1416R P acu=2251   Alpha1 -0.66 1724 6.74* 0.46 
199 1416R P acu=2251   Alpha2 -0.55 754 2.95* 0.20*
199 1416R P acu=2251   Beta -0.45 4397 17.19* 1.17 
199 1416R P acu=2251   Gamma -0.25 4036 15.78  1.07 
