xxxxxxxxxxxxxxxxxxxx     CODIGO____DESCRIPCION_____________
     C='000'   D='SERVICIO 000      '     
     C='001'   D='DIRECCION         '   
     C='002'   D='DIRECION ENFERMERIA'  
     C='003'   D='ADMISION          '   
     C='004'   D='UNIDADES COORDINACION' 
     C='005'   D='INFORMACION R.PUBL'      
     C='006'   D='ADMINISTRACION    '    
     C='007'   D='ESTERILIZACION    '      
     C='008'   D='ARCHIVO           '      
     C='009'   D='CAPELLANIA ORATORIO'   
     C='010'   D='CENTRAL TELEFONICA'     
     C='011'   D='SEGURIDAD, CORREO'      
     C='012'   D='MANTENIMIENTO     '    
     C='013'   D='TV CIRCUITO CERR. '     
     C='014'   D='CENTRO MECANOGRAFICO'  
     C='015'   D='VESTUARIO GENERAL '   
     C='999'   D='COORDINADORA-016  ' 
     C='017'   D='VELATORIO         '  
     C='018'   D='DIETAS'              
     C='019'   D='LAVANDERIA        ' 
     C='020'   D='LIMPIEZA          '      
     C='021'   D='BIBLIOTECA        '   
     C='022'   D='INFORMATICA       '  
     C='023'   D='COMPRAS           '         
     C='024'   D='PERSONAL          '       
     C='025'   D='MEDICO EMPRESA    '          
     C='026'   D='CONTABILIDAD-G.E. '        
     C='999'   D='OFICINAS SOE-027  '  
     C='028'   D='UNIDAD CAMILLEROS '  
     C='999'   D='S.ILUSTRACION-029 ' 
     C='030'   D='ACCESOS'                 
     C='031'   D='PROMOCION Y DESARROLLO'
     C='032'   D='LOCALES Y SUMINISTROS'      
     C='033'   D='PROTECCION RADIOLOGICA' 
     C='034'   D='PR.RIESG.LABORALES'    
     C='101'   D='ALERGOLOGIA       '  
     C='999'   D='ANESTESIA-102   '
     C='103'   D='CARDIOLOGIA       ' 
     C='104'   D='CIRUGIA CARDIO-VASCULAR' 
     C='105'   D='CIRUGIA GENERAL   '   
     C='106'   D='DERMATOLOGIA      '     
     C='107'   D='DIGESTIVO         '   
     C='108'   D='ENDOCRINOLOGIA    '    
     C='109'   D='QUIMIOTERAPIA     '  
     C='110'   D='FARMACOLOGIA CLINICA' 
     C='111'   D='GINECOLOGIA       '  
     C='112'   D='HEMATOLOGIA       '    
     C='113'   D='MEDICINA INTERNA  '   
     C='114'   D='MEDICINA INTERNA A'
     C='115'   D='NEFROLOGIA        ' 
     C='116'   D='NEUROLOGIA        '  
     C='117'   D='NEUROCIRUGIA      '   
     C='118'   D='OFTALMOLOGIA      '  
     C='119'   D='ORTOPEDIA         '   
     C='120'   D='OTORRINO          '      
     C='121'   D='PEDIATRIA         '     
     C='122'   D='PSIQUIATRIA       '   
     C='123'   D='UROLOGIA          '     
     C='124'   D='CIRUGIA PLASTICA'   
     C='999'   D='U.P.E.P.-151     '
     C='999'   D='CARDIOPEDIATRIA-152'
     C='153'   D='NEUROPEDIATRIA    '    
     C='154'   D='ONCOLOGIA PEDIATRICA'  
     C='155'   D='HEPATOLOGIA       '     
     C='156'   D='CIRUGIA TORACICA  '  
     C='170'   D='AREA DE MAMA'
     C='171'   D='AREA DE NUTRICION'
     C='172'   D='AREA RIESGO VASCULAR'
     C='201'   D='L.HEMATOLOGIA     '    
     C='202'   D='L.BIOQUIMICA      '      
     C='203'   D='L.MICROBIOLOGIA   '      
     C='204'   D='L.ANATOMIA PATOLOGICA'   
     C='999'   D='L.INMUNOLOGIA-205 '
     C='206'   D='HEMODINAMICA      '   
     C='207'   D='NEUROFISIOLOGIA   '      
     C='208'   D='MEDICINA NUCLEAR  '    
     C='209'   D='RADIODIAGNOSTICO  '    
     C='210'   D='RADIOTERAPIA      '    
     C='211'   D='FISIOTERAPIA'         
     C='212'   D='HEMODIALISIS'        
     C='213'   D='QUIROFANOS        '  
     C='214'   D='PARTOS            ' 
     C='215'   D='FARMACIA          '    
     C='216'   D='URGENCIAS         '     
     C='999'   D='AEROSOLTERAPIA-217'
     C='218'   D='ENDOSCOPIA        '     
     C='219'   D='GENETICA          '   
     C='999'   D='YODOS-220         '
     C='221'   D='LAB. INMUNOLOGIA'  
     C='222'   D='L.FARMAC. FARMACIA'   
     C='223'   D='ANESTESIA         '    
     C='224'   D='LAB. ALERGOLOGIA  ' 
     C='225'   D='L.FAR.FARMACOLOGIA'   
     C='999'   D='LITOTRICIA        '   
     C='999'   D='L.MEDICINA INTERNA-227' 
     C='228'   D='UNIDAD EXTRACCIONES' 
     C='999'   D='RESONANCIA MAGNETICA-299'
     C='250'   D='P.E.T.            ' 
     C='270'   D='AREA FUNCION RESPIRAT.'
     C='999'   D='PLANTA PEDIATRICA-301'  
     C='302'   D='2 PLANTA II FASE  '    
     C='303'   D='3 PLANTA II FASE  '    
     C='304'   D='4 PLANTA II FASE  '     
     C='305'   D='5 PLANTA II FASE  '     
     C='306'   D='6 PLANTA II FASE  '       
     C='307'   D='7 PLANTA II FASE  '     
     C='308'   D='8 PLANTA II FASE  '        
     C='309'   D='UNIDAD CORONARIA  '      
     C='310'   D='DIFERENCIAS       '       
     C='311'   D='NIDOS             ' 
     C='312'   D='2 PLANTA III FASE '      
     C='313'   D='3 PLANTA III FASE '      
     C='999'   D='4 PLANTA III FASE-314 '  
     C='315'   D='5 PLANTA III FASE '       
     C='316'   D='6 PLANTA III FASE '        
     C='317'   D='7 PLANTA III FASE '       
     C='318'   D='UCI ADULTOS       '       
     C='319'   D='UCI PEDIATRIA     '        
     C='320'   D='UCI TRANSPLANTES  '       
     C='999'   D='AMBULANCIAS-401'   
     C='402'   D='CAFETERIA         '   
     C='403'   D='TIENDA            '        
     C='404'   D='TALLER ORTOPEDICO '       
     C='405'   D='ENT. COLABOR. ACC.'        
     C='406'   D='ENT. COLABOR. ENF.'    
     C='407'   D='QUIROFANO EXPERIM.'     
     C='408'   D='FOTOGRAFIA'             
     C='410'   D='CLIENTES FALLIDOS '  
     C='411'   D='RESERVA FASE IV   '  
     C='412'   D='CENTRO INVES. BIOMED.' 
     C='420'   D='UNIDAD INVES.CLINICA' 
     