<<<#1-237      07-03-80
<<GLU         NEGATI
VO<<BIL         NEGA
TIVO<<CET         NE
GATIVO<<DEN         
   1.015<<SAN       
  NEGATIVO<<pH      
         5.0<<PRO   
      NEGATIVO<<URO 
     0.2 E.U./dL<<NI
T         NEGATIVO<<
LEU   Apro 70 cel/uL
Mando: Chr$(6) & Chr$(17) 
<<<#1-238      07-03
-80<<GLU         NEG
ATIVO<<BIL         N
EGATIVO<<CET        
 NEGATIVO<<DEN      
    <=1.005<<SAN    
     NEGATIVO<<pH   
            6.0<<PRO
         NEGATIVO<<U
RO      0.2 E.U./dL<
<NIT         NEGATIV
O<<LEU         NEGAT
Mando: Chr$(6) & Chr$(17) 
<<<#1-239      07
-03-80<<GLU         
NEGATIVO<<BIL       
  NEGATIVO<<CET     
    NEGATIVO<<DEN   
       >=1.030<<SAN 
        NEGATIVO<<pH
               5.0<<
PRO         NEGATIVO
<<URO      0.2 E.U./
dL<<NIT         NEGA
TIVO<<LEU         NE
Mando: Chr$(6) & Chr$(17) 
<<<#1-240     
 07-03-80<<GLU      
   NEGATIVO<<BIL    
     NEGATIVO<<CET  
       NEGATIVO<<DEN
            1.020<<S
AN         NEGATIVO<
<pH               6.
5<<PRO         NEGAT
IVO<<URO      0.2 E.
U./dL<<NIT         N
EGATIVO<<LEU        
Mando: Chr$(6) & Chr$(17) 
<<<#1-241  
    07-03-80<<GLU   
      NEGATIVO<<BIL 
            BAJO<<CE
T         NEGATIVO<<
DEN          >=1.030
<<SAN         NEGATI
VO<<pH              
 5.0<<PRO         NE
GATIVO<<URO      0.2
 E.U./dL<<NIT       
  NEGATIVO<<LEU     
Mando: Chr$(6) & Chr$(17) 
<<<#1-24
2      07-03-80<<GLU
         NEGATIVO<<B
IL         NEGATIVO<
<CET         NEGATIV
O<<DEN            1.
015<<SAN         NEG
ATIVO<<pH           
    5.0<<PRO        
 30 mg/dL<<URO      
0.2 E.U./dL<<NIT    
     NEGATIVO<<LEU  
Mando: Chr$(6) & Chr$(17) 
<<<#1
-243      07-03-80<<
GLU         NEGATIVO
<<BIL         NEGATI
VO<<CET         NEGA
TIVO<<DEN           
 1.015<<SAN   Apro 1
0 ERI/uL<<pH        
       6.0<<PRO     
    NEGATIVO<<URO   
   1.0 E.U./dL<<NIT 
        NEGATIVO<<LE
U         NEGATIVO<<
Mando: Chr$(6) & Chr$(17) 
<<<#1-244      07-03-8
0<<GLU         NEGAT
IVO<<BIL         NEG
ATIVO<<CET         N
EGATIVO<<DEN        
    1.025<<SAN   Apr
o 25 ERI/uL<<pH     
          5.0<<PRO  
       NEGATIVO<<URO
      0.2 E.U./dL<<N
IT         NEGATIVO<
<LEU         NEGATIV
Mando: Chr$(6) & Chr$(17) 
<<<#1-245      07-0
3-80<<GLU         NE
GATIVO<<BIL         
    BAJO<<CET       
  NEGATIVO<<DEN     
     >=1.030<<SAN   
      NEGATIVO<<pH  
             6.0<<PR
O         30 mg/dL<<
URO      1.0 E.U./dL
<<NIT         NEGATI
VO<<LEU         NEGA
Mando: Chr$(6) & Chr$(17) 
<<<#1-246      0
7-03-80<<GLU        
 NEGATIVO<<BIL      
   NEGATIVO<<CET    
     NEGATIVO<<DEN  
          1.015<<SAN
   Apro 10 ERI/uL<<p
H               5.5<
<PRO         NEGATIV
O<<URO      0.2 E.U.
/dL<<NIT         NEG
ATIVO<<LEU         N
Mando: Chr$(6) & Chr$(17) 
<<<#1-247    
  07-03-80<<GLU     
    NEGATIVO<<BIL   
      NEGATIVO<<CET 
        NEGATIVO<<DE
N          >=1.030<<
SAN         NEGATIVO
<<pH               5
.0<<PRO         NEGA
TIVO<<URO      0.2 E
.U./dL<<NIT         
NEGATIVO<<LEU       
Mando: Chr$(6) & Chr$(17) 
<<<#1-248 
     07-03-80<<GLU  
       NEGATIVO<<BIL
         NEGATIVO<<C
ET         NEGATIVO<
<DEN            1.01
5<<SAN         NEGAT
IVO<<pH             
  7.0<<PRO         N
EGATIVO<<URO      0.
2 E.U./dL<<NIT      
   NEGATIVO<<LEU    
Mando: Chr$(6) & Chr$(17) 
<<<#1-2
49      07-03-80<<GL
U         NEGATIVO<<
BIL         NEGATIVO
<<CET         NEGATI
VO<<DEN            1
.025<<SAN         NE
GATIVO<<pH          
     5.5<<PRO       
  NEGATIVO<<URO     
 0.2 E.U./dL<<NIT   
      NEGATIVO<<LEU 
Mando: Chr$(6) & Chr$(17) 
<<<#
1-250      07-03-80<
<GLU         NEGATIV
O<<BIL             B
AJO<<CET         15 
mg/dL<<DEN          
  1.025<<SAN        
 NEGATIVO<<pH       
        5.0<<PRO    
     INDICIOS<<URO  
    0.2 E.U./dL<<NIT
         POSITIVO<<L
EU         NEGATIVO<
Mando: Chr$(6) & Chr$(17) 
<<<#1-251      07-03-
80<<GLU         NEGA
TIVO<<BIL         NE
GATIVO<<CET         
NEGATIVO<<DEN       
     1.025<<SAN     
    NEGATIVO<<pH    
           5.5<<PRO 
        NEGATIVO<<UR
O      1.0 E.U./dL<<
NIT         NEGATIVO
<<LEU         NEGATI
Mando: Chr$(6) & Chr$(17) 
<<<#1-252      07-
03-80<<GLU         N
EGATIVO<<BIL        
 NEGATIVO<<CET      
   NEGATIVO<<DEN    
        1.025<<SAN  
       NEGATIVO<<pH 
              5.0<<P
RO         NEGATIVO<
<URO      0.2 E.U./d
L<<NIT         NEGAT
IVO<<LEU         NEG
Mando: Chr$(6) & Chr$(17) 

