[BootStrap]
File1=1,,setup1.ex_,setup1.exe,$(WinPath),,,4/28/1997 20:08:18,167936,5.0.0.3716,"","",""
File2=1,,VB5StKit.dl_,VB5StKit.dll,$(WinSysPath),,$(Shared),2/20/1997 1:00:00,29696,5.0.37.16,"","",""
File3=1,,VB5ES.dl_,VB5ES.dll,$(WinSysPath),,$(Shared),7/28/1997 13:45:26,96768,5.0.43.19,"","",""
File4=1,,MSVBVM50.dl_,MSVBVM50.dll,$(WinSysPathSysFile),$(DLLSelfRegister),,7/19/1997 16:55:40,1347344,5.1.43.19,"","",""
File5=1,,StdOle2.tl_,StdOle2.tlb,$(WinSysPathSysFile),$(TLBRegister),,5/19/1997 9:08:12,16896,2.20.4118.1,"","",""
File6=1,,OleAut32.dl_,OleAut32.dll,$(WinSysPathSysFile),$(DLLSelfRegister),,5/19/1997 9:08:12,492304,2.20.4118.1,"","",""
File7=1,,OlePro32.dl_,OlePro32.dll,$(WinSysPathSysFile),$(DLLSelfRegister),,5/19/1997 9:08:12,114960,5.0.4118.1,"","",""
File8=1,,AsycFilt.dl_,AsycFilt.dll,$(WinSysPathSysFile),,,5/19/1997 9:08:10,118544,2.20.4118.1,"","",""
File9=1,,Ctl3d32.dl_,Ctl3d32.dll,$(WinSysPathSysFile),,,2/20/1997 1:00:00,27136,2.31.0.0,"","",""
File10=1,,ComCat.dl_,ComCat.dll,$(WinSysPathSysFile),$(DLLSelfRegister),,2/20/1997 1:00:00,22288,4.71.1441.1,"","",""
[Files]
File1=1,,COMDLG32.OC_,COMDLG32.OCX,$(WinSysPath),$(DLLSelfRegister),$(Shared),7/19/1997 17:00:32,129808,5.1.43.19,"","",""
File2=1,,CmDlgES.dl_,CmDlgES.dll,$(WinSysPath),,$(Shared),7/28/1997 13:36:40,32768,5.1.43.19,"","",""
File3=1,,COMCTL32.OC_,COMCTL32.OCX,$(WinSysPath),$(DLLSelfRegister),$(Shared),7/19/1997 17:00:28,604432,5.1.43.19,"","",""
File4=1,,CmCtlES.dl_,CmCtlES.dll,$(WinSysPath),,$(Shared),7/28/1997 13:36:26,100352,5.1.43.19,"","",""
File5=1,,THREED32.OC_,THREED32.OCX,$(WinSysPath),$(DLLSelfRegister),$(Shared),2/21/1997 6:00:00,200704,1.0.41.0,"","",""
File6=1,,MFC40Loc.dl_,MFC40Loc.dll,$(WinSysPathSysFile),,,11/22/1996 13:00:00,44032,4.1.0.6038,"","",""
File7=1,,MFC40.dl_,MFC40.dll,$(WinSysPathSysFile),$(DLLSelfRegister),,2/20/1997 1:00:00,921872,4.1.0.6038,"","",""
File8=1,,MSVCRT40.dl_,MSVCRT40.dll,$(WinSysPathSysFile),,,2/20/1997 1:00:00,326656,4.10.0.6038,"","",""
File9=1,,TABCTL32.OC_,TABCTL32.OCX,$(WinSysPath),$(DLLSelfRegister),$(Shared),7/19/1997 17:01:18,192784,5.1.43.19,"","",""
File10=1,,TabCtES.dl_,TabCtES.dll,$(WinSysPath),,$(Shared),2/20/1997 1:00:00,21504,5.0.37.14,"","",""
File11=1,,SSDATB32.OC_,SSDATB32.OCX,$(WinSysPath),$(DLLSelfRegister),$(Shared),9/11/1997 2:03:00,752176,2.0.0.198,"","",""
File12=1,,Mfc42.dl_,Mfc42.dll,$(WinSysPathSysFile),$(DLLSelfRegister),,8/5/1997 11:18:50,940304,4.21.0.7160,"","",""
File13=1,,Msvcrt.dl_,Msvcrt.dll,$(WinSysPathSysFile),,,8/5/1997 11:18:54,280576,5.0.0.7128,"","",""
File14=1,,SSCALA32.OC_,SSCALA32.OCX,$(WinSysPath),$(DLLSelfRegister),$(Shared),5/1/1997 2:03:00,665064,1.0.0.122,"","",""
File15=1,,msmask32.oc_,msmask32.ocx,$(WinSysPath),$(DLLSelfRegister),$(Shared),7/19/1997 17:00:58,166160,5.1.43.19,"","",""
File16=1,,MSMskES.dl_,MSMskES.dll,$(WinSysPath),,$(Shared),2/20/1997 1:00:00,20480,5.0.37.14,"","",""
File17=1,,CRYSTL32.OC_,CRYSTL32.OCX,$(WinSysPath),$(DLLSelfRegister),$(Shared),1/2/1997 16:00:00,172544,5.0.0.106,"","",""
File18=1,,CC245ES.DL_,CC245ES.DLL,$(WinSysPath),,$(Shared),2/20/1997 1:00:00,25600,4.6.37.14,"","",""
File19=1,,CRPE32.DL_,CRPE32.DLL,$(WinSysPath),,$(Shared),1/2/1997 16:00:00,3000320,5.0.1.96,"","",""
File20=1,,CR2C40ES.DL_,CR2C40ES.DLL,$(WinSysPath),,$(Shared),2/20/1997 1:00:00,687616,4.6.1.0,"","",""
File21=1,,IMPLODE.DL_,IMPLODE.DLL,$(WinSysPath),,$(Shared),2/20/1997 1:00:00,18944,1.0.0.1,"","",""
File22=1,,PG32.DL_,PG32.DLL,$(WinSysPath),,$(Shared),2/20/1997 1:00:00,979456,1.0.0.11,"","",""
File23=1,,CO2C40EN.DL_,CO2C40EN.DLL,$(WinSysPath),,$(Shared),2/20/1997 1:00:00,749184,4.6.1.106,"","",""
File24=1,,MSVCRT20.DL_,MSVCRT20.DLL,$(WinSysPathSysFile),,,2/20/1997 1:00:00,253952,2.11.0.0,"","",""
File25=1,,CRXLAT32.DL_,CRXLAT32.DLL,$(WinPath)\Crystal,,$(Shared),1/2/1997 16:00:00,40448,3.0.0.0,"","",""
File26=1,,P2BDAO.DL_,P2BDAO.DLL,$(WinSysPath),,$(Shared),1/2/1997 16:00:00,84480,5.0.0.7,"","",""
File27=1,,P3BDAOES.DL_,P3BDAOES.DLL,$(WinSysPath),,$(Shared),2/20/1997 1:00:00,12800,4.6.1.120,"","",""
File28=1,,P2CTDAO.DL_,P2CTDAO.DLL,$(WinSysPath),,$(Shared),1/2/1997 16:00:00,48128,5.0.0.3,"","",""
File29=1,,P3CDAOES.DL_,P3CDAOES.DLL,$(WinSysPath),,$(Shared),2/20/1997 1:00:00,12288,4.6.1.120,"","",""
File30=1,,P2IRDAO.DL_,P2IRDAO.DLL,$(WinSysPath),,$(Shared),1/2/1997 16:00:00,51712,5.0.0.3,"","",""
File31=1,,P3RDAOES.DL_,P3RDAOES.DLL,$(WinSysPath),,$(Shared),2/20/1997 1:00:00,12288,4.6.1.120,"","",""
File32=1,,P2SODBC.DL_,P2SODBC.DLL,$(WinSysPath),,$(Shared),1/2/1997 16:00:00,131072,5.0.0.2,"","",""
File33=1,,P3S4ODES.DL_,P3S4ODES.DLL,$(WinSysPath),,$(Shared),2/20/1997 1:00:00,20992,4.6.1.0,"","",""
File34=1,,U2DDISK.DL_,U2DDISK.DLL,$(WinPath)\Crystal,,$(Shared),1/2/1997 16:00:00,45056,5.0.0.0,"","",""
File35=1,,X2D4DKES.DL_,X2D4DKES.DLL,$(WinPath)\Crystal,,$(Shared),2/20/1997 1:00:00,16384,4.5.0.123,"","",""
File36=1,,U2DMAPI.DL_,U2DMAPI.DLL,$(WinPath)\Crystal,,$(Shared),2/20/1997 1:00:00,124256,4.6.1.106,"","",""
File37=1,,X2D4MPES.DL_,X2D4MPES.DLL,$(WinPath)\Crystal,,$(Shared),2/20/1997 1:00:00,17408,4.5.0.123,"","",""
File38=1,,U2FCR.DL_,U2FCR.DLL,$(WinPath)\Crystal,,$(Shared),1/2/1997 16:00:00,97598,5.0.0.0,"","",""
File39=1,,X2F4CRES.DL_,X2F4CRES.DLL,$(WinPath)\Crystal,,$(Shared),2/20/1997 1:00:00,16384,4.5.0.123,"","",""
File40=1,,U2FDIF.DL_,U2FDIF.DLL,$(WinPath)\Crystal,,$(Shared),2/20/1997 1:00:00,49152,4.6.1.106,"","",""
File41=1,,X2F4DFES.DL_,X2F4DFES.DLL,$(WinPath)\Crystal,,$(Shared),2/20/1997 1:00:00,16896,4.5.0.123,"","",""
File42=1,,U2FHTML.DL_,U2FHTML.DLL,$(WinPath)\Crystal,,$(Shared),1/2/1997 16:00:00,140288,5.0.0.23,"","",""
File43=1,,X2F4HTES.DL_,X2F4HTES.DLL,$(WinPath)\Crystal,,$(Shared),2/20/1997 1:00:00,20480,4.5.0.123,"","",""
File44=1,,U2FREC.DL_,U2FREC.DLL,$(WinPath)\Crystal,,$(Shared),2/20/1997 1:00:00,49152,4.6.1.106,"","",""
File45=1,,X2F4RCES.DL_,X2F4RCES.DLL,$(WinPath)\Crystal,,$(Shared),2/20/1997 1:00:00,16896,4.5.0.123,"","",""
File46=1,,U2FRTF.DL_,U2FRTF.DLL,$(WinPath)\Crystal,,$(Shared),1/2/1997 16:00:00,71680,5.0.0.1,"","",""
File47=1,,X2F4RTES.DL_,X2F4RTES.DLL,$(WinPath)\Crystal,,$(Shared),2/20/1997 1:00:00,16384,4.5.0.123,"","",""
File48=1,,U2FSEPV.DL_,U2FSEPV.DLL,$(WinPath)\Crystal,,$(Shared),1/2/1997 16:00:00,53248,5.0.0.0,"","",""
File49=1,,X2F4SVES.DL_,X2F4SVES.DLL,$(WinPath)\Crystal,,$(Shared),2/20/1997 1:00:00,17408,4.5.0.123,"","",""
File50=1,,U2FTEXT.DL_,U2FTEXT.DLL,$(WinPath)\Crystal,,$(Shared),1/2/1997 16:00:00,70144,5.0.0.1,"","",""
File51=1,,X2F4TXES.DL_,X2F4TXES.DLL,$(WinPath)\Crystal,,$(Shared),2/20/1997 1:00:00,16384,4.5.0.123,"","",""
File52=1,,U2FWKS.DL_,U2FWKS.DLL,$(WinPath)\Crystal,,$(Shared),2/20/1997 1:00:00,53248,4.6.1.106,"","",""
File53=1,,X2F4WKES.DL_,X2F4WKES.DLL,$(WinPath)\Crystal,,$(Shared),2/20/1997 1:00:00,16896,4.5.0.123,"","",""
File54=1,,U2FWORDW.DL_,U2FWORDW.DLL,$(WinPath)\Crystal,,$(Shared),1/2/1997 16:00:00,73728,5.0.0.0,"","",""
File55=1,,X2F4WDES.DL_,X2F4WDES.DLL,$(WinPath)\Crystal,,$(Shared),2/20/1997 1:00:00,16896,4.5.0.123,"","",""
File56=1,,U2FXLS.DL_,U2FXLS.DLL,$(WinPath)\Crystal,,$(Shared),1/2/1997 16:00:00,69632,5.0.0.0,"","",""
File57=1,,X2F4XLES.DL_,X2F4XLES.DLL,$(WinPath)\Crystal,,$(Shared),2/20/1997 1:00:00,16896,4.5.0.123,"","",""
File58=1,,MSRdo20.dl_,MSRdo20.dll,$(WinSysPath),$(DLLSelfRegister),$(Shared),7/19/1997 17:01:34,376592,5.1.43.19,"","",""
File59=1,,Rdo20ES.dl_,Rdo20ES.dll,$(WinSysPath),,$(Shared),2/20/1997 1:00:00,64512,5.0.37.14,"","",""
File60=1,,rdocurs.dl_,rdocurs.dll,$(WinSysPath),,$(Shared),2/20/1997 1:00:00,97552,1.0.0.256,"","",""
File61=1,,adme.dl_,adme.dll,$(WinSysPath),,$(Shared),2/20/1997 1:00:00,57856,1997.1.8.205,"","",""
File62=1,,dtccm.dl_,dtccm.dll,$(WinSysPath),,$(Shared),2/20/1997 1:00:00,194048,1997.1.8.205,"","",""
File63=1,,dtctrace.dl_,dtctrace.dll,$(WinSysPath),,$(Shared),2/20/1997 1:00:00,7168,1.0.0.2,"","",""
File64=1,,dtcutil.dl_,dtcutil.dll,$(WinSysPath),,$(Shared),2/20/1997 1:00:00,48128,1997.1.8.205,"","",""
File65=1,,msdtcprx.dl_,msdtcprx.dll,$(WinSysPath),,$(Shared),2/20/1997 1:00:00,171008,1997.1.8.205,"","",""
File66=1,,xolehlp.dl_,xolehlp.dll,$(WinSysPath),,$(Shared),2/20/1997 1:00:00,22016,1997.1.8.205,"","",""
File67=1,,msrdc20.oc_,msrdc20.ocx,$(WinSysPath),$(DLLSelfRegister),$(Shared),7/19/1997 17:01:00,170256,5.1.43.19,"","",""
File68=1,,Rdc20ES.dl_,Rdc20ES.dll,$(WinSysPath),,$(Shared),2/20/1997 1:00:00,16384,5.0.37.14,"","",""
File69=1,,comct232.oc_,comct232.ocx,$(WinSysPath),$(DLLSelfRegister),$(Shared),7/19/1997 17:00:18,155920,5.1.43.19,"","",""
File70=1,,CmCt2ES.dl_,CmCt2ES.dll,$(WinSysPath),,$(Shared),2/20/1997 1:00:00,23552,5.0.37.14,"","",""
File71=1,,Vsocx32.oc_,Vsocx32.ocx,$(WinSysPath),$(DLLSelfRegister),$(Shared),11/27/1997 20:21:24,151552,5.0.5.50,"","",""
File72=1,,cwcun.dl_,cwcun.dll,$(WinSysPath),$(DLLSelfRegister),$(Shared),4/30/1998 10:59:26,1454592,3.3.0.4,"","",""
File73=1,,RX0100.ex_,RX0100.exe,$(AppPath),,,5/27/1998 9:13:30,192512,1.0.0.0,"","RX0100","$(AppPath)\RX0100.exe"
File74=1,,RX0100.DE_,RX0100.DEP,$(AppPath),,,5/27/1998 9:17:31,22064,1.0.0.0,"","",""

[Setup]
Title=RX0100
DefProgramGroup=RX0100
DefaultDir=$(ProgramFiles)\RX0100
Setup=setup1.exe
AppExe=RX0100.exe
AppToUninstall=RX0100.exe
AppPath=

; Puede eliminar las siguientes líneas para obtener espacio adicional 
; con el fin de personalizar este archivo en un disco de instalación completa.
; 
; XXXXXXXXXXXXXXXXXXXXXXXXXXXXXXXXXXXXXXXXXXXXXXXXXXXXXXXXXXXX
; XXXXXXXXXXXXXXXXXXXXXXXXXXXXXXXXXXXXXXXXXXXXXXXXXXXXXXXXXXXX
; XXXXXXXXXXXXXXXXXXXXXXXXXXXXXXXXXXXXXXXXXXXXXXXXXXXXXXXXXXXX
; XXXXXXXXXXXXXXXXXXXXXXXXXXXXXXXXXXXXXXXXXXXXXXXXXXXXXXXXXXXX
; XXXXXXXXXXXXXXXXXXXXXXXXXXXXXXXXXXXXXXXXXXXXXXXXXXXXXXXXXXXX
; XXXXXXXXXXXXXXXXXXXXXXXXXXXXXXXXXXXXXXXXXXXXXXXXXXXXXXXXXXXX
; XXXXXXXXXXXXXXXXXXXXXXXXXXXXXXXXXXXXXXXXXXXXXXXXXXXXXXXXXXXX
; XXXXXXXXXXXXXXXXXXXXXXXXXXXXXXXXXXXXXXXXXXXXXXXXXXXXXXXXXXXX
; XXXXXXXXXXXXXXXXXXXXXXXXXXXXXXXXXXXXXXXXXXXXXXXXXXXXXXXXXXXX
; XXXXXXXXXXXXXXXXXXXXXXXXXXXXXXXXXXXXXXXXXXXXXXXXXXXXXXXXXXXX
; XXXXXXXXXXXXXXXXXXXXXXXXXXXXXXXXXXXXXXXXXXXXXXXXXXXXXXXXXXXX
; XXXXXXXXXXXXXXXXXXXXXXXXXXXXXXXXXXXXXXXXXXXXXXXXXXXXXXXXXXXX
; XXXXXXXXXXXXXXXXXXXXXXXXXXXXXXXXXXXXXXXXXXXXXXXXXXXXXXXXXXXX
; XXXXXXXXXXXXXXXXXXXXXXXXXXXXXXXXXXXXXXXXXXXXXXXXXXXXXXXXXXXX
; XXXXXXXXXXXXXXXXXXXXXXXXXXXXXXXXXXXXXXXXXXXXXXXXXXXXXXXXXXXX
; XXXXXXXXXXXXXXXXXXXXXXXXXXXXXXXXXXXXXXXXXXXXXXXXXXXXXXXXXXXX
; XXXXXXXXXXXXXXXXXXXXXXXXXXXXXXXXXXXXXXXXXXXXXXXXXXXXXXXXXXXX
; XXXXXXXXXXXXXXXXXXXXXXXXXXXXXXXXXXXXXXXXXXXXXXXXXXXXXXXXXXXX
; XXXXXXXXXXXXXXXXXXXXXXXXXXXXXXXXXXXXXXXXXXXXXXXXXXXXXXXXXXXX
; XXXXXXXXXXXXXXXXXXXXXXXXXXXXXXXXXXXXXXXXXXXXXXXXXXXXXXXXXXXX
; XXXXXXXXXXXXXXXXXXXXXXXXXXXXXXXXXXXXXXXXXXXXXXXXXXXXXXXXXXXX
; XXXXXXXXXXXXXXXXXXXXXXXXXXXXXXXXXXXXXXXXXXXXXXXXXXXXXXXXXXXX
; XXXXXXXXXXXXXXXXXXXXXXXXXXXXXXXXXXXXXXXXXXXXXXXXXXXXXXXXXXXX
; XXXXXXXXXXXXXXXXXXXXXXXXXXXXXXXXXXXXXXXXXXXXXXXXXXXXXXXXXXXX
; XXXXXXXXXXXXXXXXXXXXXXXXXXXXXXXXXXXXXXXXXXXXXXXXXXXXXXXXXXXX
; XXXXXXXXXXXXXXXXXXXXXXXXXXXXXXXXXXXXXXXXXXXXXXXXXXXXXXXXXXXX
; XXXXXXXXXXXXXXXXXXXXXXXXXXXXXXXXXXXXXXXXXXXXXXXXXXXXXXXXXXXX
; XXXXXXXXXXXXXXXXXXXXXXXXXXXXXXXXXXXXXXXXXXXXXXXXXXXXXXXXXXXX
; XXXXXXXXXXXXXXXXXXXXXXXXXXXXXXXXXXXXXXXXXXXXXXXXXXXXXXXXXXXX
; XXXXXXXXXXXXXXXXXXXXXXXXXXXXXXXXXXXXXXXXXXXXXXXXXXXXXXXXXXXX
; XXXXXXXXXXXXXXXXXXXXXXXXXXXXXXXXXXXXXXXXXXXXXXXXXXXXXXXXXXXX
; XXXXXXXXXXXXXXXXXXXXXXXXXXXXXXXXXXXXXXXXXXXXXXXXXXXXXXXXXXXX
; XXXXXXXXXXXXXXXXXXXXXXXXXXXXXXXXXXXXXXXXXXXXXXXXXXXXXXXXXXXX
; XXXXXXXXXXXXXXXXXXXXXXXXXXXXXXXXXXXXXXXXXXXXXXXXXXXXXXXXXXXX
; XXXXXXXXXXXXXXXXXXXXXXXXXXXXXXXXXXXXXXXXXXXXXXXXXXXXXXXXXXXX
; XXXXXXXXXXXXXXXXXXXXXXXXXXXXXXXXXXXXXXXXXXXXXXXXXXXXXXXXXXXX
; XXXXXXXXXXXXXXXXXXXXXXXXXXXXXXXXXXXXXXXXXXXXXXXXXXXXXXXXXXXX
; XXXXXXXXXXXXXXXXXXXXXXXXXXXXXXXXXXXXXXXXXXXXXXXXXXXXXXXXXXXX
; XXXXXXXXXXXXXXXXXXXXXXXXXXXXXXXXXXXXXXXXXXXXXXXXXXXXXXXXXXXX
; XXXXXXXXXXXXXXXXXXXXXXXXXXXXXXXXXXXXXXXXXXXXXXXXXXXXXXXXXXXX
; XXXXXXXXXXXXXXXXXXXXXXXXXXXXXXXXXXXXXXXXXXXXXXXXXXXXXXXXXXXX
; XXXXXXXXXXXXXXXXXXXXXXXXXXXXXXXXXXXXXXXXXXXXXXXXXXXXXXXXXXXX
; XXXXXXXXXXXXXXXXXXXXXXXXXXXXXXXXXXXXXXXXXXXXXXXXXXXXXXXXXXXX
; XXXXXXXXXXXXXXXXXXXXXXXXXXXXXXXXXXXXXXXXXXXXXXXXXXXXXXXXXXXX
; XXXXXXXXXXXXXXXXXXXXXXXXXXXXXXXXXXXXXXXXXXXXXXXXXXXXXXXXXXXX
; XXXXXXXXXXXXXXXXXXXXXXXXXXXXXXXXXXXXXXXXXXXXXXXXXXXXXXXXXXXX
; XXXXXXXXXXXXXXXXXXXXXXXXXXXXXXXXXXXXXXXXXXXXXXXXXXXXXXXXXXXX
; XXXXXXXXXXXXXXXXXXXXXXXXXXXXXXXXXXXXXXXXXXXXXXXXXXXXXXXXXXXX
; XXXXXXXXXXXXXXXXXXXXXXXXXXXXXXXXXXXXXXXXXXXXXXXXXXXXXXXXXXXX
; XXXXXXXXXXXXXXXXXXXXXXXXXXXXXXXXXXXXXXXXXXXXXXXXXXXXXXXXXXXX
; XXXXXXXXXXXXXXXXXXXXXXXXXXXXXXXXXXXXXXXXXXXXXXXXXXXXXXXXXXXX
; XXXXXXXXXXXXXXXXXXXXXXXXXXXXXXXXXXXXXXXXXXXXXXXXXXXXXXXXXXXX
; XXXXXXXXXXXXXXXXXXXXXXXXXXXXXXXXXXXXXXXXXXXXXXXXXXXXXXXXXXXX
; XXXXXXXXXXXXXXXXXXXXXXXXXXXXXXXXXXXXXXXXXXXXXXXXXXXXXXXXXXXX
; XXXXXXXXXXXXXXXXXXXXXXXXXXXXXXXXXXXXXXXXXXXXXXXXXXXXXXXXXXXX
; XXXXXXXXXXXXXXXXXXXXXXXXXXXXXXXXXXXXXXXXXXXXXXXXXXXXXXXXXXXX
; XXXXXXXXXXXXXXXXXXXXXXXXXXXXXXXXXXXXXXXXXXXXXXXXXXXXXXXXXXXX
; XXXXXXXXXXXXXXXXXXXXXXXXXXXXXXXXXXXXXXXXXXXXXXXXXXXXXXXXXXXX
; XXXXXXXXXXXXXXXXXXXXXXXXXXXXXXXXXXXXXXXXXXXXXXXXXXXXXXXXXXXX
; XXXXXXXXXXXXXXXXXXXXXXXXXXXXXXXXXXXXXXXXXXXXXXXXXXXXXXXXXXXX
; XXXXXXXXXXXXXXXXXXXXXXXXXXXXXXXXXXXXXXXXXXXXXXXXXXXXXXXXXXXX
; XXXXXXXXXXXXXXXXXXXXXXXXXXXXXXXXXXXXXXXXXXXXXXXXXXXXXXXXXXXX
; XXXXXXXXXXXXXXXXXXXXXXXXXXXXXXXXXXXXXXXXXXXXXXXXXXXXXXXXXXXX
; XXXXXXXXXXXXXXXXXXXXXXXXXXXXXXXXXXXXXXXXXXXXXXXXXXXXXXXXXXXX
; XXXXXXXXXXXXXXXXXXXXXXXXXXXXXXXXXXXXXXXXXXXXXXXXXXXXXXXXXXXX
; XXXXXXXXXXXXXXXXXXXXXXXXXXXXXXXXXXXXXXXXXXXXXXXXXXXXXXXXXXXX
; XXXXXXXXXXXXXXXXXXXXXXXXXXXXXXXXXXXXXXXXXXXXXXXXXXXXXXXXXXXX
; XXXXXXXXXXXXXXXXXXXXXXXXXXXXXXXXXXXXXXXXXXXXXXXXXXXXXXXXXXXX
; XXXXXXXXXXXXXXXXXXXXXXXXXXXXXXXXXXXXXXXXXXXXXXXXXXXXXXXXXXXX
; XXXXXXXXXXXXXXXXXXXXXXXXXXXXXXXXXXXXXXXXXXXXXXXXXXXXXXXXXXXX
; XXXXXXXXXXXXXXXXXXXXXXXXXXXXXXXXXXXXXXXXXXXXXXXXXXXXXXXXXXXX
; XXXXXXXXXXXXXXXXXXXXXXXXXXXXXXXXXXXXXXXXXXXXXXXXXXXXXXXXXXXX
; XXXXXXXXXXXXXXXXXXXXXXXXXXXXXXXXXXXXXXXXXXXXXXXXXXXXXXXXXXXX
; XXXXXXXXXXXXXXXXXXXXXXXXXXXXXXXXXXXXXXXXXXXXXXXXXXXXXXXXXXXX
; XXXXXXXXXXXXXXXXXXXXXXXXXXXXXXXXXXXXXXXXXXXXXXXXXXXXXXXXXXXX
; XXXXXXXXXXXXXXXXXXXXXXXXXXXXXXXXXXXXXXXXXXXXXXXXXXXXXXXXXXXX
; XXXXXXXXXXXXXXXXXXXXXXXXXXXXXXXXXXXXXXXXXXXXXXXXXXXXXXXXXXXX
; XXXXXXXXXXXXXXXXXXXXXXXXXXXXXXXXXXXXXXXXXXXXXXXXXXXXXXXXXXXX
; XXXXXXXXXXXXXXXXXXXXXXXXXXXXXXXXXXXXXXXXXXXXXXXXXXXXXXXXXXXX
; XXXXXXXXXXXXXXXXXXXXXXXXXXXXXXXXXXXXXXXXXXXXXXXXXXXXXXXXXXXX
; XXXXXXXXXXXXXXXXXXXXXXXXXXXXXXXXXXXXXXXXXXXXXXXXXXXXXXXXXXXX
; XXXXXXXXXXXXXXXXXXXXXXXXXXXXXXXXXXXXXXXXXXXXXXXXXXXXXXXXXXXX
; XXXXXXXXXXXXXXXXXXXXXXXXXXXXXXXXXXXXXXXXXXXXXXXXXXXXXXXXXXXX
; XXXXXXXXXXXXXXXXXXXXXXXXXXXXXXXXXXXXXXXXXXXXXXXXXXXXXXXXXXXX
; XXXXXXXXXXXXXXXXXXXXXXXXXXXXXXXXXXXXXXXXXXXXXXXXXXXXXXXXXXXX
; XXXXXXXXXXXXXXXXXXXXXXXXXXXXXXXXXXXXXXXXXXXXXXXXXXXXXXXXXXXX
