Line 2: Could not create reference: '{BC496AED-9B4E-11CE-A6D5-0000C0BE9395}#2.0#0'.
Line 3: Could not create reference: '{E8671A8B-E5DD-11CD-836C-0000C0C14E92}#1.0#0'.
Line 4: Could not create reference: '{FE0065C0-1B7B-11CF-9D53-00AA003C9CB6}#1.0#0'.
Line 5: Could not create reference: '{00025600-0000-0000-C000-000000000046}#1.3#0'.
